$ 1 0.000005 10.20027730826997 50 5 50 5e-11
R 448 96 448 48 0 0 40 5 0 0 0.5
f 368 320 416 320 52 1.5 0.02
f 384 144 432 144 53 1.5 0.02
f 496 192 448 192 53 1.5 0.02
f 496 320 448 320 52 1.5 0.02
w 432 304 448 304 0
w 432 304 416 304 0
w 448 336 432 336 0
w 432 336 432 368 0
w 432 336 416 336 0
g 432 512 432 544 0 0
f 528 192 576 192 53 1.5 0.02
f 640 192 592 192 53 1.5 0.02
w 592 336 576 336 0
w 592 336 592 368 0
w 608 336 592 336 0
w 592 304 576 304 0
w 592 304 608 304 0
f 656 320 608 320 52 1.5 0.02
f 528 320 576 320 52 1.5 0.02
w 592 368 432 368 0
L 224 464 160 464 0 1 false 5 0
L 576 448 480 448 0 0 false 5 0
f 496 272 448 272 52 1.5 0.02
w 448 304 448 288 0
w 528 320 512 320 0
w 512 320 496 320 0
w 512 320 512 352 0
f 528 272 576 272 52 1.5 0.02
w 576 288 576 304 0
w 576 256 576 240 0
w 448 256 448 224 0
f 384 192 432 192 53 1.5 0.02
w 432 160 432 176 0
w 448 208 448 224 0
f 640 144 592 144 53 1.5 0.02
w 592 160 592 176 0
w 576 176 576 128 0
w 448 208 432 208 0
w 592 208 576 208 0
w 592 128 576 128 0
w 576 128 448 128 0
w 448 176 448 128 0
w 448 128 432 128 0
w 496 192 496 240 0
w 496 240 496 272 0
w 496 240 576 240 0
w 576 208 576 240 0
w 528 192 528 224 0
w 528 224 448 224 0
w 528 224 528 272 0
w 384 192 384 352 0
w 640 192 640 352 0
w 512 352 640 352 0
w 512 352 384 352 0
w 384 144 368 144 0
w 368 144 368 320 0
w 640 144 656 144 0
w 656 144 656 320 0
L 224 352 176 352 0 0 false 5 0
f 224 320 272 320 53 1.5 0.02
f 224 384 272 384 52 1.5 0.02
w 272 336 272 352 0
w 272 368 272 352 0
w 224 320 224 352 0
w 224 352 224 384 0
w 272 352 384 352 0
w 432 400 272 400 0
w 432 368 432 400 0
w 448 128 448 96 0
w 448 96 272 96 0
w 272 96 272 304 0
f 224 432 272 432 53 1.5 0.02
f 224 496 272 496 52 1.5 0.02
w 272 448 272 464 0
w 272 480 272 464 0
f 576 416 624 416 53 1.5 0.02
f 576 480 624 480 52 1.5 0.02
w 624 432 624 448 0
w 624 464 624 448 0
w 272 464 368 464 0
w 368 464 368 320 0
w 624 448 656 448 0
w 656 448 656 320 0
w 576 416 576 448 0
w 576 480 576 448 0
w 224 432 224 464 0
w 224 464 224 496 0
w 432 400 432 512 0
w 272 512 432 512 0
w 624 496 624 512 0
w 624 512 432 512 0
w 272 416 288 416 0
w 288 416 288 304 0
w 288 304 272 304 0
w 624 400 624 384 0
w 624 384 576 384 0
w 576 384 576 400 0
w 576 400 448 400 0
w 448 400 448 416 0
w 448 416 288 416 0
w 496 192 496 96 0
w 528 192 528 96 0
M 496 96 496 64 0 2.5
M 528 96 528 64 0 2.5
